The Nexus between Team Depth and NBA Championship
…
The points per 36 minutes distribution is approximately normally distributed with a center of around 12 pp36.

The rebounds per 36 minutes distribution is right skewed with a median of approximately 5 rp36 and a mean of around 6 rp36.

The assists per 36 minutes distribution is right skewed with a median of approximately 2.5 ap36 and a mean of around 3 ap36.

# A tibble: 496 × 3
   team_id count_qual count_rot
   <chr>        <int>     <int>
 1 1990BOS          7         8
 2 1990CHI          7         9
 3 1990CLE          5         7
 4 1990DET          8         8
 5 1990HOU          5         7
 6 1990LAL          6         8
 7 1990MIL          6         7
 8 1990NYK          6         8
 9 1990PHI          5         7
10 1990PHO          6         7
# … with 486 more rows
…
